Document General Social Survey Variable • gssrdoc
…
Information about the variables is also contained in the gss_dict object:

library(tibble)
library(gssrdoc)
gss_dict
#> # A tibble: 6,663 × 13
#>      pos variable label     missing var_doc_label value_labels var_text years   
#>    <int> <chr>    <chr>       <int> <chr>         <chr>        <chr>    <list>  
#>  1     1 year     gss year…       0 gss year for… [NA(d)] don… None     <NULL>  
#>  2     2 wrkstat  labor fo…      36 labor force … [1] working… 1. Last… <tibble>
#>  3     3 hrs1     number o…   30830 number of ho… [89] 89+ ho… 1a. If … <tibble>
#>  4     4 hrs2     number o…   70989 number of ho… [89] 89+ ho… 1b. If … <tibble>
#>  5     5 evwork   ever wor…   46944 ever work as… [1] yes; [2… 1c. If … <tibble>
#>  6     6 occ      r's cens…   48123 r's census o… [NA(d)] don… 2a. Wha… <tibble>
#>  7     7 prestige r's occu…   48123 r's occupati… [NA(d)] don… 2a. Wha… <tibble>
#>  8     8 wrkslf   r self-e…    4041 r self-emp o… [1] self-em… 2e. (Ar… <tibble>
#>  9     9 wrkgovt  govt or …   44311 govt or priv… [1] governm… 2f. (Ar… <tibble>
#> 10    10 commute  travel t…   71060 travel time … [97] 97+ mi… 2g. Abo… <tibble>
#> # ℹ 6,653 more rows
#> # ℹ 5 more variables: var_yrtab <list>, var_ballots <list>, col_type <chr>,
#> #   var_type <chr>, var_na_codes <chr>
…
